<svg xmlns:xlink="http://www.w3.org/1999/xlink" xmlns="http://www.w3.org/2000/svg" viewBox="0 0 10 10" height="40" width="40">
  <style>
    #square {
      fill: none;
      stroke: #1b7c89;
      stroke-width: 1;
      stroke-dasharray: 6, 6
    }
  </style>
  <rect y="1" x="1" height="6" width="6" id="square"/>
  <animate xlink:href="#square" attributeName="stroke-dashoffset" from="12" to="0" dur="2s" repeatCount="indefinite" />
</svg>
